ahb_master/sim/ahb_master.vcd
$date
	Sat Feb 11 07:02:01 2017
$end
$version
	Icarus Verilog
$end
$timescale
	1s
$end
$scope module ahb_master_test $end
$var wire 1 ! o_next $end
$var wire 1 " o_hwrite $end
$var wire 32 # o_hwdata [31:0] $end
$var wire 2 $ o_htrans [1:0] $end
$var wire 3 % o_hsize [2:0] $end
$var wire 1 & o_hbusreq $end
$var wire 3 ' o_hburst [2:0] $end
$var wire 32 ( o_haddr [31:0] $end
$var wire 1 ) o_dav $end
$var wire 32 * o_data [31:0] $end
$var wire 32 + o_addr [31:0] $end
$var reg 32 , i_addr [31:0] $end
$var reg 1 - i_cont $end
$var reg 32 . i_data [31:0] $end
$var reg 1 / i_dav $end
$var reg 1 0 i_hclk $end
$var reg 1 1 i_hgrant $end
$var reg 32 2 i_hrdata [31:0] $end
$var reg 1 3 i_hready $end
$var reg 1 4 i_hreset_n $end
$var reg 2 5 i_hresp [1:0] $end
$var reg 32 6 i_min_len [31:0] $end
$var reg 1 7 i_rd $end
$var reg 3 8 i_size [2:0] $end
$var reg 1 9 i_wr $end
$scope module DUT $end
$var wire 32 : i_addr [31:0] $end
$var wire 1 - i_cont $end
$var wire 32 ; i_data [31:0] $end
$var wire 1 / i_dav $end
$var wire 1 0 i_hclk $end
$var wire 1 1 i_hgrant $end
$var wire 32 < i_hrdata [31:0] $end
$var wire 1 3 i_hready $end
$var wire 1 4 i_hreset_n $end
$var wire 2 = i_hresp [1:0] $end
$var wire 32 > i_min_len [31:0] $end
$var wire 1 7 i_rd $end
$var wire 3 ? i_size [2:0] $end
$var wire 1 9 i_wr $end
$var wire 1 @ rd_wr $end
$var wire 1 A spl_ret_cyc_1 $end
$var wire 1 B b1k $end
$var reg 2048 C HBURST [2047:0] $end
$var reg 2048 D HRESP [2047:0] $end
$var reg 2048 E HSIZE [2047:0] $end
$var reg 2048 F HTRANS [2047:0] $end
$var reg 32 G beat_ctr [31:0] $end
$var reg 5 H burst_ctr [4:0] $end
$var reg 2 I gnt [1:0] $end
$var reg 3 J hburst [2:0] $end
$var reg 2 K hwrite [1:0] $end
$var reg 32 L o_addr [31:0] $end
$var reg 32 M o_data [31:0] $end
$var reg 1 ) o_dav $end
$var reg 32 N o_haddr [31:0] $end
$var reg 3 O o_hburst [2:0] $end
$var reg 1 & o_hbusreq $end
$var reg 3 P o_hsize [2:0] $end
$var reg 2 Q o_htrans [1:0] $end
$var reg 32 R o_hwdata [31:0] $end
$var reg 1 " o_hwrite $end
$var reg 1 ! o_next $end
$var reg 1 S pend_split $end
$scope function compute_burst_ctr $end
$var reg 5 T compute_burst_ctr [4:0] $end
$var reg 5 U val [4:0] $end
$upscope $end
$scope function compute_hburst $end
$var reg 3 V compute_hburst [2:0] $end
$var reg 32 W val [31:0] $end
$upscope $end
$upscope $end
$scope task d $end
$var integer 32 X x [31:0] $end
$upscope $end
$scope task wait_for_next $end
$upscope $end
$upscope $end
$enddefinitions $end
#0
$dumpvars
b1 X
bx W
bx V
bx U
bx T
xS
bx R
bx Q
bx P
bx O
bx N
bx M
bx L
bx K
bx J
bx I
bx H
bx G
bx F
bx E
bx D
bx C
xB
0A
0@
b0 ?
b0 >
b0 =
b0 <
b0 ;
b0 :
09
b0 8
07
b0 6
b0 5
04
13
b0 2
11
00
0/
b0 .
0-
b0 ,
bx +
bx *
x)
bx (
bx '
x&
bx %
bx $
bx #
x"
x!
$end
#10
b111100001011010010110100101101001111110011111100111111001111110011111100101101001011010010110100111110 E
b1001111010010110100000101011001 D
b10100110100100101001110010001110100110001000101 F
b11110000101101001011010010110100101101001111110011111100111111001111110011111100101101001011010010110100111110 C
b0 $
b0 Q
1@
0!
b0 I
0&
0S
0)
17
b10100 6
b10100 >
14
01
10
#20
00
#30
1&
10
#40
00
#50
1!
11
10
#60
00
#70
b111000010000100100100101010100 E
b10011100100111101001110010100110100010101010001 F
b10010010100111001000011010100100011000100110110 C
b0 (
b0 N
b111 '
b111 O
b10 $
b10 Q
0"
b0 %
b0 P
0B
b1111 H
b10011 G
b111 J
bx0 K
b1 I
1-
b1111 T
b10011 U
b111 V
b10011 W
b11111010000 X
10
#80
00
#90
b10100110100010101010001 F
b1 (
b1 N
b11 $
b11 Q
b0 #
b0 R
b11 I
b10010 G
b1110 H
b0 K
10
#100
00
#110
b10 (
b10 N
b0 +
b0 L
b0 *
b0 M
1)
b10001 G
b1101 H
10
#120
00
#130
b11 (
b11 N
b10000 G
b1100 H
b1 +
b1 L
10
#140
00
#150
b100 (
b100 N
b10 +
b10 L
b1111 G
b1011 H
10
#160
00
#170
b101 (
b101 N
b1110 G
b1010 H
b11 +
b11 L
10
#180
00
#190
b110 (
b110 N
b100 +
b100 L
b1101 G
b1001 H
10
#200
00
#210
b111 (
b111 N
b1100 G
b1000 H
b101 +
b101 L
10
#220
00
#230
b1000 (
b1000 N
b110 +
b110 L
b1011 G
b111 H
10
#240
00
#250
b1001 (
b1001 N
b1010 G
b110 H
b111 +
b111 L
10
#260
00
#270
b1010 (
b1010 N
b1000 +
b1000 L
b1001 G
b101 H
10
#280
00
#290
b1011 (
b1011 N
b1000 G
b100 H
b1001 +
b1001 L
10
#300
00
#310
b1100 (
b1100 N
b1010 +
b1010 L
b111 G
b11 H
10
#320
00
#330
b1101 (
b1101 N
b110 G
b10 H
b1011 +
b1011 L
10
#340
00
#350
b1110 (
b1110 N
b1100 +
b1100 L
b101 G
b1 H
10
#360
00
#370
b1111 (
b1111 N
b100 G
b0 H
b1101 +
b1101 L
10
#380
00
#390
b10011100100111101001110010100110100010101010001 F
b100100101001110010000110101001000110100 C
b10000 (
b10000 N
b11 '
b11 O
b10 $
b10 Q
b1110 +
b1110 L
b11 G
b11 H
b11 J
b11 T
b11 U
b11 V
b11 W
10
#400
00
#410
b10100110100010101010001 F
b10001 (
b10001 N
b11 $
b11 Q
b10 G
b10 H
b1111 +
b1111 L
10
#420
00
#430
b10010 (
b10010 N
b10000 +
b10000 L
b1 G
b1 H
10
#440
00
#450
b10011 (
b10011 N
b0 G
b0 H
b10001 +
b10001 L
10
#460
00
#470
b10011100100111101001110010100110100010101010001 F
b1001001010011100100001101010010 C
b10100 (
b10100 N
b1 '
b1 O
b10 $
b10 Q
b10010 +
b10010 L
b1 J
b0 T
b0 U
b1 V
b0 W
10
#480
00
#490
b10100110100010101010001 F
b10101 (
b10101 N
b11 $
b11 Q
b10011 +
b10011 L
10
#500
00
#510
b10110 (
b10110 N
b10100 +
b10100 L
10
#520
00
#530
b10111 (
b10111 N
b10101 +
b10101 L
10
#540
00
#550
b11000 (
b11000 N
b10110 +
b10110 L
10
#560
00
#570
b11001 (
b11001 N
b10111 +
b10111 L
10
#580
00
#590
b11010 (
b11010 N
b11000 +
b11000 L
10
#600
00
#610
b11011 (
b11011 N
b11001 +
b11001 L
10
#620
00
#630
b11100 (
b11100 N
b11010 +
b11010 L
10
#640
00
#650
b11101 (
b11101 N
b11011 +
b11011 L
10
#660
00
#670
b11110 (
b11110 N
b11100 +
b11100 L
10
#680
00
#690
b11111 (
b11111 N
b11101 +
b11101 L
10
#700
00
#710
b100000 (
b100000 N
b11110 +
b11110 L
10
#720
00
#730
b100001 (
b100001 N
b11111 +
b11111 L
10
#740
00
#750
b100010 (
b100010 N
b100000 +
b100000 L
10
#760
00
#770
b100011 (
b100011 N
b100001 +
b100001 L
10
#780
00
#790
b100100 (
b100100 N
b100010 +
b100010 L
10
#800
00
#810
b100101 (
b100101 N
b100011 +
b100011 L
10
#820
00
#830
b100110 (
b100110 N
b100100 +
b100100 L
10
#840
00
#850
b100111 (
b100111 N
b100101 +
b100101 L
10
#860
00
#870
b101000 (
b101000 N
b100110 +
b100110 L
10
#880
00
#890
b101001 (
b101001 N
b100111 +
b100111 L
10
#900
00
#910
b101010 (
b101010 N
b101000 +
b101000 L
10
#920
00
#930
b101011 (
b101011 N
b101001 +
b101001 L
10
#940
00
#950
b101100 (
b101100 N
b101010 +
b101010 L
10
#960
00
#970
b101101 (
b101101 N
b101011 +
b101011 L
10
#980
00
#990
b101110 (
b101110 N
b101100 +
b101100 L
10
#1000
00
#1010
b101111 (
b101111 N
b101101 +
b101101 L
10
#1020
00
#1030
b110000 (
b110000 N
b101110 +
b101110 L
10
#1040
00
#1050
b110001 (
b110001 N
b101111 +
b101111 L
10
#1060
00
#1070
b110010 (
b110010 N
b110000 +
b110000 L
10
#1080
00
#1090
b110011 (
b110011 N
b110001 +
b110001 L
10
#1100
00
#1110
b110100 (
b110100 N
b110010 +
b110010 L
10
#1120
00
#1130
b110101 (
b110101 N
b110011 +
b110011 L
10
#1140
00
#1150
b110110 (
b110110 N
b110100 +
b110100 L
10
#1160
00
#1170
b110111 (
b110111 N
b110101 +
b110101 L
10
#1180
00
#1190
b111000 (
b111000 N
b110110 +
b110110 L
10
#1200
00
#1210
b111001 (
b111001 N
b110111 +
b110111 L
10
#1220
00
#1230
b111010 (
b111010 N
b111000 +
b111000 L
10
#1240
00
#1250
b111011 (
b111011 N
b111001 +
b111001 L
10
#1260
00
#1270
b111100 (
b111100 N
b111010 +
b111010 L
10
#1280
00
#1290
b111101 (
b111101 N
b111011 +
b111011 L
10
#1300
00
#1310
b111110 (
b111110 N
b111100 +
b111100 L
10
#1320
00
#1330
b111111 (
b111111 N
b111101 +
b111101 L
10
#1340
00
#1350
b1000000 (
b1000000 N
b111110 +
b111110 L
10
#1360
00
#1370
b1000001 (
b1000001 N
b111111 +
b111111 L
10
#1380
00
#1390
b1000010 (
b1000010 N
b1000000 +
b1000000 L
10
#1400
00
#1410
b1000011 (
b1000011 N
b1000001 +
b1000001 L
10
#1420
00
#1430
b1000100 (
b1000100 N
b1000010 +
b1000010 L
10
#1440
00
#1450
b1000101 (
b1000101 N
b1000011 +
b1000011 L
10
#1460
00
#1470
b1000110 (
b1000110 N
b1000100 +
b1000100 L
10
#1480
00
#1490
b1000111 (
b1000111 N
b1000101 +
b1000101 L
10
#1500
00
#1510
b1001000 (
b1001000 N
b1000110 +
b1000110 L
10
#1520
00
#1530
b1001001 (
b1001001 N
b1000111 +
b1000111 L
10
#1540
00
#1550
b1001010 (
b1001010 N
b1001000 +
b1001000 L
10
#1560
00
#1570
b1001011 (
b1001011 N
b1001001 +
b1001001 L
10
#1580
00
#1590
b1001100 (
b1001100 N
b1001010 +
b1001010 L
10
#1600
00
#1610
b1001101 (
b1001101 N
b1001011 +
b1001011 L
10
#1620
00
#1630
b1001110 (
b1001110 N
b1001100 +
b1001100 L
10
#1640
00
#1650
b1001111 (
b1001111 N
b1001101 +
b1001101 L
10
#1660
00
#1670
b1010000 (
b1010000 N
b1001110 +
b1001110 L
10
#1680
00
#1690
b1010001 (
b1010001 N
b1001111 +
b1001111 L
10
#1700
00
#1710
b1010010 (
b1010010 N
b1010000 +
b1010000 L
10
#1720
00
#1730
b1010011 (
b1010011 N
b1010001 +
b1010001 L
10
#1740
00
#1750
b1010100 (
b1010100 N
b1010010 +
b1010010 L
10
#1760
00
#1770
b1010101 (
b1010101 N
b1010011 +
b1010011 L
10
#1780
00
#1790
b1010110 (
b1010110 N
b1010100 +
b1010100 L
10
#1800
00
#1810
b1010111 (
b1010111 N
b1010101 +
b1010101 L
10
#1820
00
#1830
b1011000 (
b1011000 N
b1010110 +
b1010110 L
10
#1840
00
#1850
b1011001 (
b1011001 N
b1010111 +
b1010111 L
10
#1860
00
#1870
b1011010 (
b1011010 N
b1011000 +
b1011000 L
10
#1880
00
#1890
b1011011 (
b1011011 N
b1011001 +
b1011001 L
10
#1900
00
#1910
b1011100 (
b1011100 N
b1011010 +
b1011010 L
10
#1920
00
#1930
b1011101 (
b1011101 N
b1011011 +
b1011011 L
10
#1940
00
#1950
b1011110 (
b1011110 N
b1011100 +
b1011100 L
10
#1960
00
#1970
b1011111 (
b1011111 N
b1011101 +
b1011101 L
10
#1980
00
#1990
b1100000 (
b1100000 N
b1011110 +
b1011110 L
10
#2000
00
#2010
b1100001 (
b1100001 N
b1011111 +
b1011111 L
10
#2020
00
#2030
b1100010 (
b1100010 N
b1100000 +
b1100000 L
10
#2040
00
#2050
b1100011 (
b1100011 N
b1100001 +
b1100001 L
10
#2060
00
#2070
b1100100 (
b1100100 N
b1100010 +
b1100010 L
10
#2080
00
#2090
b1100101 (
b1100101 N
b1100011 +
b1100011 L
10
#2100
00
#2110
b1100110 (
b1100110 N
b1100100 +
b1100100 L
10
#2120
00
#2130
b1100111 (
b1100111 N
b1100101 +
b1100101 L
10
#2140
00
#2150
b1101000 (
b1101000 N
b1100110 +
b1100110 L
10
#2160
00
#2170
b1101001 (
b1101001 N
b1100111 +
b1100111 L
10
#2180
00
#2190
b1101010 (
b1101010 N
b1101000 +
b1101000 L
10
#2200
00
#2210
b1101011 (
b1101011 N
b1101001 +
b1101001 L
10
#2220
00
#2230
b1101100 (
b1101100 N
b1101010 +
b1101010 L
10
#2240
00
#2250
b1101101 (
b1101101 N
b1101011 +
b1101011 L
10
#2260
00
#2270
b1101110 (
b1101110 N
b1101100 +
b1101100 L
10
#2280
00
#2290
b1101111 (
b1101111 N
b1101101 +
b1101101 L
10
#2300
00
#2310
b1110000 (
b1110000 N
b1101110 +
b1101110 L
10
#2320
00
#2330
b1110001 (
b1110001 N
b1101111 +
b1101111 L
10
#2340
00
#2350
b1110010 (
b1110010 N
b1110000 +
b1110000 L
10
#2360
00
#2370
b1110011 (
b1110011 N
b1110001 +
b1110001 L
10
#2380
00
#2390
b1110100 (
b1110100 N
b1110010 +
b1110010 L
10
#2400
00
#2410
b1110101 (
b1110101 N
b1110011 +
b1110011 L
10
#2420
00
#2430
b1110110 (
b1110110 N
b1110100 +
b1110100 L
10
#2440
00
#2450
b1110111 (
b1110111 N
b1110101 +
b1110101 L
10
#2460
00
#2470
b1111000 (
b1111000 N
b1110110 +
b1110110 L
10
#2480
00
#2490
b1111001 (
b1111001 N
b1110111 +
b1110111 L
10
#2500
00
#2510
b1111010 (
b1111010 N
b1111000 +
b1111000 L
10
#2520
00
#2530
b1111011 (
b1111011 N
b1111001 +
b1111001 L
10
#2540
00
#2550
b1111100 (
b1111100 N
b1111010 +
b1111010 L
10
#2560
00
#2570
b1111101 (
b1111101 N
b1111011 +
b1111011 L
10
#2580
00
#2590
b1111110 (
b1111110 N
b1111100 +
b1111100 L
10
#2600
00
#2610
b1111111 (
b1111111 N
b1111101 +
b1111101 L
10
#2620
00
#2630
b10000000 (
b10000000 N
b1111110 +
b1111110 L
10
#2640
00
#2650
b10000001 (
b10000001 N
b1111111 +
b1111111 L
10
#2660
00
#2670
b10000010 (
b10000010 N
b10000000 +
b10000000 L
10
#2680
00
#2690
b10000011 (
b10000011 N
b10000001 +
b10000001 L
10
#2700
00
#2710
b10000100 (
b10000100 N
b10000010 +
b10000010 L
10
#2720
00
#2730
b10000101 (
b10000101 N
b10000011 +
b10000011 L
10
#2740
00
#2750
b10000110 (
b10000110 N
b10000100 +
b10000100 L
10
#2760
00
#2770
b10000111 (
b10000111 N
b10000101 +
b10000101 L
10
#2780
00
#2790
b10001000 (
b10001000 N
b10000110 +
b10000110 L
10
#2800
00
#2810
b10001001 (
b10001001 N
b10000111 +
b10000111 L
10
#2820
00
#2830
b10001010 (
b10001010 N
b10001000 +
b10001000 L
10
#2840
00
#2850
b10001011 (
b10001011 N
b10001001 +
b10001001 L
10
#2860
00
#2870
b10001100 (
b10001100 N
b10001010 +
b10001010 L
10
#2880
00
#2890
b10001101 (
b10001101 N
b10001011 +
b10001011 L
10
#2900
00
#2910
b10001110 (
b10001110 N
b10001100 +
b10001100 L
10
#2920
00
#2930
b10001111 (
b10001111 N
b10001101 +
b10001101 L
10
#2940
00
#2950
b10010000 (
b10010000 N
b10001110 +
b10001110 L
10
#2960
00
#2970
b10010001 (
b10010001 N
b10001111 +
b10001111 L
10
#2980
00
#2990
b10010010 (
b10010010 N
b10010000 +
b10010000 L
10
#3000
00
#3010
b10010011 (
b10010011 N
b10010001 +
b10010001 L
10
#3020
00
#3030
b10010100 (
b10010100 N
b10010010 +
b10010010 L
10
#3040
00
#3050
b10010101 (
b10010101 N
b10010011 +
b10010011 L
10
#3060
00
#3070
b10010110 (
b10010110 N
b10010100 +
b10010100 L
10
#3080
00
#3090
b10010111 (
b10010111 N
b10010101 +
b10010101 L
10
#3100
00
#3110
b10011000 (
b10011000 N
b10010110 +
b10010110 L
10
#3120
00
#3130
b10011001 (
b10011001 N
b10010111 +
b10010111 L
10
#3140
00
#3150
b10011010 (
b10011010 N
b10011000 +
b10011000 L
10
#3160
00
#3170
b10011011 (
b10011011 N
b10011001 +
b10011001 L
10
#3180
00
#3190
b10011100 (
b10011100 N
b10011010 +
b10011010 L
10
#3200
00
#3210
b10011101 (
b10011101 N
b10011011 +
b10011011 L
10
#3220
00
#3230
b10011110 (
b10011110 N
b10011100 +
b10011100 L
10
#3240
00
#3250
b10011111 (
b10011111 N
b10011101 +
b10011101 L
10
#3260
00
#3270
b10100000 (
b10100000 N
b10011110 +
b10011110 L
10
#3280
00
#3290
b10100001 (
b10100001 N
b10011111 +
b10011111 L
10
#3300
00
#3310
b10100010 (
b10100010 N
b10100000 +
b10100000 L
10
#3320
00
#3330
b10100011 (
b10100011 N
b10100001 +
b10100001 L
10
#3340
00
#3350
b10100100 (
b10100100 N
b10100010 +
b10100010 L
10
#3360
00
#3370
b10100101 (
b10100101 N
b10100011 +
b10100011 L
10
#3380
00
#3390
b10100110 (
b10100110 N
b10100100 +
b10100100 L
10
#3400
00
#3410
b10100111 (
b10100111 N
b10100101 +
b10100101 L
10
#3420
00
#3430
b10101000 (
b10101000 N
b10100110 +
b10100110 L
10
#3440
00
#3450
b10101001 (
b10101001 N
b10100111 +
b10100111 L
10
#3460
00
#3470
b10101010 (
b10101010 N
b10101000 +
b10101000 L
10
#3480
00
#3490
b10101011 (
b10101011 N
b10101001 +
b10101001 L
10
#3500
00
#3510
b10101100 (
b10101100 N
b10101010 +
b10101010 L
10
#3520
00
#3530
b10101101 (
b10101101 N
b10101011 +
b10101011 L
10
#3540
00
#3550
b10101110 (
b10101110 N
b10101100 +
b10101100 L
10
#3560
00
#3570
b10101111 (
b10101111 N
b10101101 +
b10101101 L
10
#3580
00
#3590
b10110000 (
b10110000 N
b10101110 +
b10101110 L
10
#3600
00
#3610
b10110001 (
b10110001 N
b10101111 +
b10101111 L
10
#3620
00
#3630
b10110010 (
b10110010 N
b10110000 +
b10110000 L
10
#3640
00
#3650
b10110011 (
b10110011 N
b10110001 +
b10110001 L
10
#3660
00
#3670
b10110100 (
b10110100 N
b10110010 +
b10110010 L
10
#3680
00
#3690
b10110101 (
b10110101 N
b10110011 +
b10110011 L
10
#3700
00
#3710
b10110110 (
b10110110 N
b10110100 +
b10110100 L
10
#3720
00
#3730
b10110111 (
b10110111 N
b10110101 +
b10110101 L
10
#3740
00
#3750
b10111000 (
b10111000 N
b10110110 +
b10110110 L
10
#3760
00
#3770
b10111001 (
b10111001 N
b10110111 +
b10110111 L
10
#3780
00
#3790
b10111010 (
b10111010 N
b10111000 +
b10111000 L
10
#3800
00
#3810
b10111011 (
b10111011 N
b10111001 +
b10111001 L
10
#3820
00
#3830
b10111100 (
b10111100 N
b10111010 +
b10111010 L
10
#3840
00
#3850
b10111101 (
b10111101 N
b10111011 +
b10111011 L
10
#3860
00
#3870
b10111110 (
b10111110 N
b10111100 +
b10111100 L
10
#3880
00
#3890
b10111111 (
b10111111 N
b10111101 +
b10111101 L
10
#3900
00
#3910
b11000000 (
b11000000 N
b10111110 +
b10111110 L
10
#3920
00
#3930
b11000001 (
b11000001 N
b10111111 +
b10111111 L
10
#3940
00
#3950
b11000010 (
b11000010 N
b11000000 +
b11000000 L
10
#3960
00
#3970
b11000011 (
b11000011 N
b11000001 +
b11000001 L
10
#3980
00
#3990
b11000100 (
b11000100 N
b11000010 +
b11000010 L
10
#4000
00
#4010
b11000101 (
b11000101 N
b11000011 +
b11000011 L
10
#4020
00
#4030
b11000110 (
b11000110 N
b11000100 +
b11000100 L
10
#4040
00
#4050
b11000111 (
b11000111 N
b11000101 +
b11000101 L
10
#4060
00
#4070
b11001000 (
b11001000 N
b11000110 +
b11000110 L
10
#4080
00
#4090
b11001001 (
b11001001 N
b11000111 +
b11000111 L
10
#4100
00
#4110
b11001010 (
b11001010 N
b11001000 +
b11001000 L
10
#4120
00
#4130
b11001011 (
b11001011 N
b11001001 +
b11001001 L
10
#4140
00
#4150
b11001100 (
b11001100 N
b11001010 +
b11001010 L
10
#4160
00
#4170
b11001101 (
b11001101 N
b11001011 +
b11001011 L
10
#4180
00
#4190
b11001110 (
b11001110 N
b11001100 +
b11001100 L
10
#4200
00
#4210
b11001111 (
b11001111 N
b11001101 +
b11001101 L
10
#4220
00
#4230
b11010000 (
b11010000 N
b11001110 +
b11001110 L
10
#4240
00
#4250
b11010001 (
b11010001 N
b11001111 +
b11001111 L
10
#4260
00
#4270
b11010010 (
b11010010 N
b11010000 +
b11010000 L
10
#4280
00
#4290
b11010011 (
b11010011 N
b11010001 +
b11010001 L
10
#4300
00
#4310
b11010100 (
b11010100 N
b11010010 +
b11010010 L
10
#4320
00
#4330
b11010101 (
b11010101 N
b11010011 +
b11010011 L
10
#4340
00
#4350
b11010110 (
b11010110 N
b11010100 +
b11010100 L
10
#4360
00
#4370
b11010111 (
b11010111 N
b11010101 +
b11010101 L
10
#4380
00
#4390
b11011000 (
b11011000 N
b11010110 +
b11010110 L
10
#4400
00
#4410
b11011001 (
b11011001 N
b11010111 +
b11010111 L
10
#4420
00
#4430
b11011010 (
b11011010 N
b11011000 +
b11011000 L
10
#4440
00
#4450
b11011011 (
b11011011 N
b11011001 +
b11011001 L
10
#4460
00
#4470
b11011100 (
b11011100 N
b11011010 +
b11011010 L
10
#4480
00
#4490
b11011101 (
b11011101 N
b11011011 +
b11011011 L
10
#4500
00
#4510
b11011110 (
b11011110 N
b11011100 +
b11011100 L
10
#4520
00
#4530
b11011111 (
b11011111 N
b11011101 +
b11011101 L
10
#4540
00
#4550
b11100000 (
b11100000 N
b11011110 +
b11011110 L
10
#4560
00
#4570
b11100001 (
b11100001 N
b11011111 +
b11011111 L
10
#4580
00
#4590
b11100010 (
b11100010 N
b11100000 +
b11100000 L
10
#4600
00
#4610
b11100011 (
b11100011 N
b11100001 +
b11100001 L
10
#4620
00
#4630
b11100100 (
b11100100 N
b11100010 +
b11100010 L
10
#4640
00
#4650
b11100101 (
b11100101 N
b11100011 +
b11100011 L
10
#4660
00
#4670
b11100110 (
b11100110 N
b11100100 +
b11100100 L
10
#4680
00
#4690
b11100111 (
b11100111 N
b11100101 +
b11100101 L
10
#4700
00
#4710
b11101000 (
b11101000 N
b11100110 +
b11100110 L
10
#4720
00
#4730
b11101001 (
b11101001 N
b11100111 +
b11100111 L
10
#4740
00
#4750
b11101010 (
b11101010 N
b11101000 +
b11101000 L
10
#4760
00
#4770
b11101011 (
b11101011 N
b11101001 +
b11101001 L
10
#4780
00
#4790
b11101100 (
b11101100 N
b11101010 +
b11101010 L
10
#4800
00
#4810
b11101101 (
b11101101 N
b11101011 +
b11101011 L
10
#4820
00
#4830
b11101110 (
b11101110 N
b11101100 +
b11101100 L
10
#4840
00
#4850
b11101111 (
b11101111 N
b11101101 +
b11101101 L
10
#4860
00
#4870
b11110000 (
b11110000 N
b11101110 +
b11101110 L
10
#4880
00
#4890
b11110001 (
b11110001 N
b11101111 +
b11101111 L
10
#4900
00
#4910
b11110010 (
b11110010 N
b11110000 +
b11110000 L
10
#4920
00
#4930
b11110011 (
b11110011 N
b11110001 +
b11110001 L
10
#4940
00
#4950
b11110100 (
b11110100 N
b11110010 +
b11110010 L
10
#4960
00
#4970
b11110101 (
b11110101 N
b11110011 +
b11110011 L
10
#4980
00
#4990
b11110110 (
b11110110 N
b11110100 +
b11110100 L
10
#5000
00
#5010
b11110111 (
b11110111 N
b11110101 +
b11110101 L
10
#5020
00
#5030
b11111000 (
b11111000 N
b11110110 +
b11110110 L
10
#5040
00
#5050
b11111001 (
b11111001 N
b11110111 +
b11110111 L
10
#5060
00
#5070
b11111010 (
b11111010 N
b11111000 +
b11111000 L
10
#5080
00
#5090
b11111011 (
b11111011 N
b11111001 +
b11111001 L
10
#5100
00
#5110
b11111100 (
b11111100 N
b11111010 +
b11111010 L
10
#5120
00
#5130
b11111101 (
b11111101 N
b11111011 +
b11111011 L
10
#5140
00
#5150
b11111110 (
b11111110 N
b11111100 +
b11111100 L
10
#5160
00
#5170
b11111111 (
b11111111 N
b11111101 +
b11111101 L
10
#5180
00
#5190
b100000000 (
b100000000 N
b11111110 +
b11111110 L
10
#5200
00
#5210
b100000001 (
b100000001 N
b11111111 +
b11111111 L
10
#5220
00
#5230
b100000010 (
b100000010 N
b100000000 +
b100000000 L
10
#5240
00
#5250
b100000011 (
b100000011 N
b100000001 +
b100000001 L
10
#5260
00
#5270
b100000100 (
b100000100 N
b100000010 +
b100000010 L
10
#5280
00
#5290
b100000101 (
b100000101 N
b100000011 +
b100000011 L
10
#5300
00
#5310
b100000110 (
b100000110 N
b100000100 +
b100000100 L
10
#5320
00
#5330
b100000111 (
b100000111 N
b100000101 +
b100000101 L
10
#5340
00
#5350
b100001000 (
b100001000 N
b100000110 +
b100000110 L
10
#5360
00
#5370
b100001001 (
b100001001 N
b100000111 +
b100000111 L
10
#5380
00
#5390
b100001010 (
b100001010 N
b100001000 +
b100001000 L
10
#5400
00
#5410
b100001011 (
b100001011 N
b100001001 +
b100001001 L
10
#5420
00
#5430
b100001100 (
b100001100 N
b100001010 +
b100001010 L
10
#5440
00
#5450
b100001101 (
b100001101 N
b100001011 +
b100001011 L
10
#5460
00
#5470
b100001110 (
b100001110 N
b100001100 +
b100001100 L
10
#5480
00
#5490
b100001111 (
b100001111 N
b100001101 +
b100001101 L
10
#5500
00
#5510
b100010000 (
b100010000 N
b100001110 +
b100001110 L
10
#5520
00
#5530
b100010001 (
b100010001 N
b100001111 +
b100001111 L
10
#5540
00
#5550
b100010010 (
b100010010 N
b100010000 +
b100010000 L
10
#5560
00
#5570
b100010011 (
b100010011 N
b100010001 +
b100010001 L
10
#5580
00
#5590
b100010100 (
b100010100 N
b100010010 +
b100010010 L
10
#5600
00
#5610
b100010101 (
b100010101 N
b100010011 +
b100010011 L
10
#5620
00
#5630
b100010110 (
b100010110 N
b100010100 +
b100010100 L
10
#5640
00
#5650
b100010111 (
b100010111 N
b100010101 +
b100010101 L
10
#5660
00
#5670
b100011000 (
b100011000 N
b100010110 +
b100010110 L
10
#5680
00
#5690
b100011001 (
b100011001 N
b100010111 +
b100010111 L
10
#5700
00
#5710
b100011010 (
b100011010 N
b100011000 +
b100011000 L
10
#5720
00
#5730
b100011011 (
b100011011 N
b100011001 +
b100011001 L
10
#5740
00
#5750
b100011100 (
b100011100 N
b100011010 +
b100011010 L
10
#5760
00
#5770
b100011101 (
b100011101 N
b100011011 +
b100011011 L
10
#5780
00
#5790
b100011110 (
b100011110 N
b100011100 +
b100011100 L
10
#5800
00
#5810
b100011111 (
b100011111 N
b100011101 +
b100011101 L
10
#5820
00
#5830
b100100000 (
b100100000 N
b100011110 +
b100011110 L
10
#5840
00
#5850
b100100001 (
b100100001 N
b100011111 +
b100011111 L
10
#5860
00
#5870
b100100010 (
b100100010 N
b100100000 +
b100100000 L
10
#5880
00
#5890
b100100011 (
b100100011 N
b100100001 +
b100100001 L
10
#5900
00
#5910
b100100100 (
b100100100 N
b100100010 +
b100100010 L
10
#5920
00
#5930
b100100101 (
b100100101 N
b100100011 +
b100100011 L
10
#5940
00
#5950
b100100110 (
b100100110 N
b100100100 +
b100100100 L
10
#5960
00
#5970
b100100111 (
b100100111 N
b100100101 +
b100100101 L
10
#5980
00
#5990
b100101000 (
b100101000 N
b100100110 +
b100100110 L
10
#6000
00
#6010
b100101001 (
b100101001 N
b100100111 +
b100100111 L
10
#6020
00
#6030
b100101010 (
b100101010 N
b100101000 +
b100101000 L
10
#6040
00
#6050
b100101011 (
b100101011 N
b100101001 +
b100101001 L
10
#6060
00
#6070
b100101100 (
b100101100 N
b100101010 +
b100101010 L
10
#6080
00
#6090
b100101101 (
b100101101 N
b100101011 +
b100101011 L
10
#6100
00
#6110
b100101110 (
b100101110 N
b100101100 +
b100101100 L
10
#6120
00
#6130
b100101111 (
b100101111 N
b100101101 +
b100101101 L
10
#6140
00
#6150
b100110000 (
b100110000 N
b100101110 +
b100101110 L
10
#6160
00
#6170
b100110001 (
b100110001 N
b100101111 +
b100101111 L
10
#6180
00
#6190
b100110010 (
b100110010 N
b100110000 +
b100110000 L
10
#6200
00
#6210
b100110011 (
b100110011 N
b100110001 +
b100110001 L
10
#6220
00
#6230
b100110100 (
b100110100 N
b100110010 +
b100110010 L
10
#6240
00
#6250
b100110101 (
b100110101 N
b100110011 +
b100110011 L
10
#6260
00
#6270
b100110110 (
b100110110 N
b100110100 +
b100110100 L
10
#6280
00
#6290
b100110111 (
b100110111 N
b100110101 +
b100110101 L
10
#6300
00
#6310
b100111000 (
b100111000 N
b100110110 +
b100110110 L
10
#6320
00
#6330
b100111001 (
b100111001 N
b100110111 +
b100110111 L
10
#6340
00
#6350
b100111010 (
b100111010 N
b100111000 +
b100111000 L
10
#6360
00
#6370
b100111011 (
b100111011 N
b100111001 +
b100111001 L
10
#6380
00
#6390
b100111100 (
b100111100 N
b100111010 +
b100111010 L
10
#6400
00
#6410
b100111101 (
b100111101 N
b100111011 +
b100111011 L
10
#6420
00
#6430
b100111110 (
b100111110 N
b100111100 +
b100111100 L
10
#6440
00
#6450
b100111111 (
b100111111 N
b100111101 +
b100111101 L
10
#6460
00
#6470
b101000000 (
b101000000 N
b100111110 +
b100111110 L
10
#6480
00
