ahb_master/sim/ahb_master.vcd
$date
	Sat Feb 11 13:20:27 2017
$end
$version
	Icarus Verilog
$end
$timescale
	1s
$end
$scope module ahb_master_test $end
$var wire 1 ! o_next $end
$var wire 1 " o_hwrite $end
$var wire 32 # o_hwdata [31:0] $end
$var wire 2 $ o_htrans [1:0] $end
$var wire 3 % o_hsize [2:0] $end
$var wire 1 & o_hbusreq $end
$var wire 3 ' o_hburst [2:0] $end
$var wire 32 ( o_haddr [31:0] $end
$var wire 1 ) o_dav $end
$var wire 32 * o_data [31:0] $end
$var wire 32 + o_addr [31:0] $end
$var reg 32 , i_data [31:0] $end
$var reg 32 - dat [31:0] $end
$var reg 1 . dav $end
$var reg 32 / i_addr [31:0] $end
$var reg 1 0 i_cont $end
$var reg 1 1 i_dav $end
$var reg 1 2 i_hclk $end
$var reg 1 3 i_hgrant $end
$var reg 32 4 i_hrdata [31:0] $end
$var reg 1 5 i_hready $end
$var reg 1 6 i_hreset_n $end
$var reg 2 7 i_hresp [1:0] $end
$var reg 32 8 i_min_len [31:0] $end
$var reg 1 9 i_rd $end
$var reg 3 : i_size [2:0] $end
$var reg 1 ; i_wr $end
$scope module DUT $end
$var wire 32 < i_addr [31:0] $end
$var wire 1 0 i_cont $end
$var wire 32 = i_data [31:0] $end
$var wire 1 1 i_dav $end
$var wire 1 2 i_hclk $end
$var wire 1 3 i_hgrant $end
$var wire 32 > i_hrdata [31:0] $end
$var wire 1 5 i_hready $end
$var wire 1 6 i_hreset_n $end
$var wire 2 ? i_hresp [1:0] $end
$var wire 32 @ i_min_len [31:0] $end
$var wire 1 9 i_rd $end
$var wire 3 A i_size [2:0] $end
$var wire 1 ; i_wr $end
$var wire 1 B rd_wr $end
$var wire 1 C spl_ret_cyc_1 $end
$var wire 1 D b1k_spec $end
$var wire 1 E b1k $end
$var reg 2048 F HBURST [2047:0] $end
$var reg 2048 G HRESP [2047:0] $end
$var reg 2048 H HSIZE [2047:0] $end
$var reg 2048 I HTRANS [2047:0] $end
$var reg 32 J beat [31:0] $end
$var reg 32 K beat_ctr [31:0] $end
$var reg 5 L burst_ctr [4:0] $end
$var reg 2 M gnt [1:0] $end
$var reg 3 N hburst [2:0] $end
$var reg 2 O hwrite [1:0] $end
$var reg 32 P o_addr [31:0] $end
$var reg 32 Q o_data [31:0] $end
$var reg 1 ) o_dav $end
$var reg 32 R o_haddr [31:0] $end
$var reg 3 S o_hburst [2:0] $end
$var reg 1 & o_hbusreq $end
$var reg 3 T o_hsize [2:0] $end
$var reg 2 U o_htrans [1:0] $end
$var reg 32 V o_hwdata [31:0] $end
$var reg 1 " o_hwrite $end
$var reg 1 ! o_next $end
$var reg 1 W pend_split $end
$scope function compute_burst_ctr $end
$var reg 5 X compute_burst_ctr [4:0] $end
$var reg 5 Y val [4:0] $end
$upscope $end
$scope function compute_hburst $end
$var reg 3 Z compute_hburst [2:0] $end
$var reg 32 [ val [31:0] $end
$upscope $end
$upscope $end
$scope begin bk $end
$upscope $end
$scope task d $end
$var integer 32 \ x [31:0] $end
$upscope $end
$scope task wait_for_next $end
$upscope $end
$upscope $end
$enddefinitions $end
#0
$dumpvars
b1 \
bx [
bx Z
bx Y
bx X
xW
bx V
bx U
bx T
bx S
bx R
bx Q
bx P
bx O
bx N
bx M
bx L
bx K
bx J
bx I
bx H
bx G
bx F
xE
xD
0C
0B
b0 A
b0 @
b0 ?
b0 >
bx =
b0 <
0;
b0 :
09
b0 8
b0 7
06
15
b0 4
13
02
01
00
b0 /
0.
b0 -
bx ,
bx +
bx *
x)
bx (
bx '
x&
bx %
bx $
bx #
x"
x!
$end
#10
b111100001011010010110100101101001111110011111100111111001111110011111100101101001011010010110100111110 H
b1001111010010110100000101011001 G
b1001001010001000100110001000101 I
b11110000101101001011010010110100101101001111110011111100111111001111110011111100101101001011010010110100111110 F
b0 $
b0 U
0!
b0 M
0&
0W
0)
1;
b10100 8
b10100 @
16
03
12
#20
02
#30
1&
12
#40
02
#50
1!
13
12
#60
02
#70
b111000010000100100100101010100 H
b10010010100111001000011010100100011000100110110 F
b0 (
b0 R
b111 '
b111 S
1"
b0 %
b0 T
0E
0D
b10011 K
b10000 L
b111 N
bx1 O
b1 M
b10000 X
b10100 Y
b111 Z
b10100 [
12
#80
02
#90
1B
b11 M
11
b11 O
b10011 J
12
#100
02
#110
b10011100100111101001110010100110100010101010001 I
b10 $
b10 U
0B
01
10
b1 -
1.
12
#120
02
#130
b1000010010101010101001101011001 I
b1 $
b1 U
1B
b1 ,
b1 =
11
b10 -
12
#140
02
#150
b10100110100010101010001 I
b1 (
b1 R
b11 $
b11 U
b0 +
b0 P
b0 *
b0 Q
b10010 K
b1111 L
b10 ,
b10 =
b11 -
12
#160
02
#170
b10 (
b10 R
b1 #
b1 V
b10001 K
b1110 L
b11 ,
b11 =
b10010 J
b100 -
12
#180
02
#190
b11 (
b11 R
b10 #
b10 V
b1 +
b1 P
b10000 K
b1101 L
b100 ,
b100 =
b10001 J
b101 -
12
#200
02
#210
b100 (
b100 R
b11 #
b11 V
b1111 K
b1100 L
b10 +
b10 P
b101 ,
b101 =
b10000 J
b110 -
12
#220
02
#230
b101 (
b101 R
b100 #
b100 V
b11 +
b11 P
b1110 K
b1011 L
b110 ,
b110 =
b1111 J
0.
12
#240
02
#250
b110 (
b110 R
b101 #
b101 V
0B
b1101 K
b1010 L
b100 +
b100 P
bx ,
bx =
01
b1110 J
b111 -
1.
12
#260
02
#270
b1000010010101010101001101011001 I
b1 $
b1 U
b110 #
b110 V
1B
b101 +
b101 P
b111 ,
b111 =
11
b1101 J
b1000 -
12
#280
02
#290
b10100110100010101010001 I
b111 (
b111 R
b11 $
b11 U
bx #
bx V
b1100 K
b1001 L
b110 +
b110 P
b1000 ,
b1000 =
0.
12
#300
02
#310
b1000 (
b1000 R
b111 #
b111 V
0B
b1011 K
b1000 L
bx ,
bx =
01
b1100 J
b1001 -
1.
12
#320
02
#330
b1000010010101010101001101011001 I
b1 $
b1 U
b1000 #
b1000 V
1B
b111 +
b111 P
b1001 ,
b1001 =
11
b1011 J
b1010 -
12
#340
02
#350
b10100110100010101010001 I
b1001 (
b1001 R
b11 $
b11 U
bx #
bx V
b1000 +
b1000 P
b1010 K
b111 L
b1010 ,
b1010 =
0.
12
#360
02
#370
b1010 (
b1010 R
b1001 #
b1001 V
0B
b1001 K
b110 L
bx ,
bx =
01
b1010 J
b1011 -
1.
12
#380
02
#390
b1000010010101010101001101011001 I
b1 $
b1 U
b1010 #
b1010 V
1B
b1001 +
b1001 P
b1011 ,
b1011 =
11
b1001 J
0.
12
#400
02
#410
b10100110100010101010001 I
b1011 (
b1011 R
b11 $
b11 U
bx #
bx V
0B
b1000 K
b101 L
b1010 +
b1010 P
bx ,
bx =
01
b1100 -
1.
12
#420
02
#430
b1000010010101010101001101011001 I
b1 $
b1 U
b1011 #
b1011 V
1B
b1100 ,
b1100 =
11
b1000 J
0.
12
#440
02
#450
b10100110100010101010001 I
b1100 (
b1100 R
b11 $
b11 U
bx #
bx V
0B
b111 K
b100 L
b1011 +
b1011 P
bx ,
bx =
01
b1101 -
1.
12
#460
02
#470
b1000010010101010101001101011001 I
b1 $
b1 U
b1100 #
b1100 V
1B
b1101 ,
b1101 =
11
b111 J
b1110 -
12
#480
02
#490
b10100110100010101010001 I
b1101 (
b1101 R
b11 $
b11 U
bx #
bx V
b110 K
b11 L
b1100 +
b1100 P
b1110 ,
b1110 =
0.
12
#500
02
#510
b1110 (
b1110 R
b1101 #
b1101 V
0B
b101 K
b10 L
bx ,
bx =
01
b110 J
b1111 -
1.
12
#520
02
#530
b1000010010101010101001101011001 I
b1 $
b1 U
b1110 #
b1110 V
1B
b1101 +
b1101 P
b1111 ,
b1111 =
11
b101 J
0.
12
#540
02
#550
b10100110100010101010001 I
b1111 (
b1111 R
b11 $
b11 U
bx #
bx V
0B
b1110 +
b1110 P
b100 K
b1 L
bx ,
bx =
01
12
#560
02
#570
b1001001010001000100110001000101 I
b100100101001110010000110101001000110100 F
b11 '
b11 S
b0 $
b0 U
b1111 #
b1111 V
b100 L
b11 N
b100 J
b100 X
b100 Y
b11 Z
b100 [
12
#580
02
#590
bx #
bx V
b1111 +
b1111 P
b10000 -
1.
12
#600
02
#610
1B
b10000 ,
b10000 =
11
0.
12
#620
02
#630
b10011100100111101001110010100110100010101010001 I
b10000 (
b10000 R
b10 $
b10 U
0B
bx ,
bx =
01
b10001 -
1.
12
#640
02
#650
b1000010010101010101001101011001 I
b1 $
b1 U
b10000 #
b10000 V
1B
b10001 ,
b10001 =
11
b10010 -
12
#660
02
#670
b10100110100010101010001 I
b10001 (
b10001 R
b11 $
b11 U
bx #
bx V
b10000 +
b10000 P
b11 K
b11 L
b10010 ,
b10010 =
b10011 -
12
#680
02
#690
b10010 (
b10010 R
b10001 #
b10001 V
b10 K
b10 L
b10011 ,
b10011 =
b11 J
b10100 -
12
#700
02
#710
b10011 (
b10011 R
b10010 #
b10010 V
b10001 +
b10001 P
b1 K
b1 L
b10100 ,
b10100 =
b10 J
0.
12
#720
02
#730
b10011100100111101001110010100110100010101010001 I
b1001001010011100100001101010010 F
b10100 (
b10100 R
b1 '
b1 S
b10 $
b10 U
b10011 #
b10011 V
0B
b0 L
b1 N
b10010 +
b10010 P
bx ,
bx =
01
b1 J
b0 X
b1 Y
b1 Z
b1 [
12
#740
02
#750
b1000010010101010101001101011001 I
b1 $
b1 U
b10100 #
b10100 V
b10011 +
b10011 P
12
#760
02
#770
bx #
bx V
b10100 +
b10100 P
12
#780
02
#790
b10101 -
1.
12
#800
02
#810
1B
b10101 ,
b10101 =
11
0.
12
#820
02
#830
b10100110100010101010001 I
b10101 (
b10101 R
b11 $
b11 U
0B
bx ,
bx =
01
b10110 -
1.
12
#840
02
#850
b1000010010101010101001101011001 I
b1 $
b1 U
b10101 #
b10101 V
1B
b10110 ,
b10110 =
11
b10111 -
12
#860
02
#870
b10100110100010101010001 I
b10110 (
b10110 R
b11 $
b11 U
bx #
bx V
b10101 +
b10101 P
b10111 ,
b10111 =
b11000 -
12
#880
02
#890
b10111 (
b10111 R
b10110 #
b10110 V
b11000 ,
b11000 =
b11001 -
12
#900
02
#910
b11000 (
b11000 R
b10111 #
b10111 V
b10110 +
b10110 P
b11001 ,
b11001 =
b11010 -
12
#920
02
#930
b11001 (
b11001 R
b11000 #
b11000 V
b10111 +
b10111 P
b11010 ,
b11010 =
0.
12
#940
02
#950
b11010 (
b11010 R
b11001 #
b11001 V
0B
b11000 +
b11000 P
bx ,
bx =
01
12
#960
02
#970
b1000010010101010101001101011001 I
b1 $
b1 U
b11010 #
b11010 V
b11001 +
b11001 P
b11011 -
1.
12
#980
02
#990
bx #
bx V
1B
b11010 +
b11010 P
b11011 ,
b11011 =
11
b11100 -
12
#1000
02
#1010
b10100110100010101010001 I
b11011 (
b11011 R
b11 $
b11 U
b11100 ,
b11100 =
b11101 -
12
#1020
02
#1030
b11100 (
b11100 R
b11011 #
b11011 V
b11101 ,
b11101 =
0.
12
#1040
02
#1050
b11101 (
b11101 R
b11100 #
b11100 V
0B
b11011 +
b11011 P
bx ,
bx =
01
12
#1060
02
#1070
b1000010010101010101001101011001 I
b1 $
b1 U
b11101 #
b11101 V
b11100 +
b11100 P
12
#1080
02
#1090
bx #
bx V
b11101 +
b11101 P
12
#1100
02
#1110
12
#1120
02
#1130
b11110 -
1.
12
#1140
02
#1150
1B
b11110 ,
b11110 =
11
0.
12
#1160
02
#1170
b10100110100010101010001 I
b11110 (
b11110 R
b11 $
b11 U
0B
bx ,
bx =
01
12
#1180
02
#1190
b1000010010101010101001101011001 I
b1 $
b1 U
b11110 #
b11110 V
b11111 -
1.
12
#1200
02
#1210
bx #
bx V
1B
b11110 +
b11110 P
b11111 ,
b11111 =
11
b100000 -
12
#1220
02
#1230
b10100110100010101010001 I
b11111 (
b11111 R
b11 $
b11 U
b100000 ,
b100000 =
0.
12
#1240
02
#1250
b100000 (
b100000 R
b11111 #
b11111 V
0B
bx ,
bx =
01
12
#1260
02
#1270
b1000010010101010101001101011001 I
b1 $
b1 U
b100000 #
b100000 V
b11111 +
b11111 P
12
#1280
02
#1290
bx #
bx V
b100000 +
b100000 P
12
#1300
02
#1310
12
#1320
02
#1330
b100001 -
1.
12
#1340
02
#1350
1B
b100001 ,
b100001 =
11
b100010 -
12
#1360
02
#1370
b10100110100010101010001 I
b100001 (
b100001 R
b11 $
b11 U
b100010 ,
b100010 =
b100011 -
12
#1380
02
#1390
b100010 (
b100010 R
b100001 #
b100001 V
b100011 ,
b100011 =
b100100 -
12
#1400
02
#1410
b100011 (
b100011 R
b100010 #
b100010 V
b100001 +
b100001 P
b100100 ,
b100100 =
b100101 -
12
#1420
02
#1430
b100100 (
b100100 R
b100011 #
b100011 V
b100010 +
b100010 P
b100101 ,
b100101 =
0.
12
#1440
02
#1450
b100101 (
b100101 R
b100100 #
b100100 V
0B
b100011 +
b100011 P
bx ,
bx =
01
12
#1460
02
#1470
b1000010010101010101001101011001 I
b1 $
b1 U
b100101 #
b100101 V
b100100 +
b100100 P
b100110 -
1.
12
#1480
02
#1490
bx #
bx V
1B
b100101 +
b100101 P
b100110 ,
b100110 =
11
b100111 -
12
#1500
02
#1510
b10100110100010101010001 I
b100110 (
b100110 R
b11 $
b11 U
b100111 ,
b100111 =
b101000 -
12
#1520
02
#1530
b100111 (
b100111 R
b100110 #
b100110 V
b101000 ,
b101000 =
0.
12
#1540
02
#1550
b101000 (
b101000 R
b100111 #
b100111 V
0B
b100110 +
b100110 P
bx ,
bx =
01
12
#1560
02
#1570
b1000010010101010101001101011001 I
b1 $
b1 U
b101000 #
b101000 V
b100111 +
b100111 P
b101001 -
1.
12
#1580
02
#1590
bx #
bx V
1B
b101000 +
b101000 P
b101001 ,
b101001 =
11
b101010 -
12
#1600
02
#1610
b10100110100010101010001 I
b101001 (
b101001 R
b11 $
b11 U
b101010 ,
b101010 =
0.
12
#1620
02
#1630
b101010 (
b101010 R
b101001 #
b101001 V
0B
bx ,
bx =
01
b101011 -
1.
12
#1640
02
#1650
b1000010010101010101001101011001 I
b1 $
b1 U
b101010 #
b101010 V
1B
b101001 +
b101001 P
b101011 ,
b101011 =
11
b101100 -
12
#1660
02
#1670
b10100110100010101010001 I
b101011 (
b101011 R
b11 $
b11 U
bx #
bx V
b101010 +
b101010 P
b101100 ,
b101100 =
0.
12
#1680
02
#1690
b101100 (
b101100 R
b101011 #
b101011 V
0B
bx ,
bx =
01
b101101 -
1.
12
#1700
02
#1710
b1000010010101010101001101011001 I
b1 $
b1 U
b101100 #
b101100 V
1B
b101011 +
b101011 P
b101101 ,
b101101 =
11
b101110 -
12
#1720
02
#1730
b10100110100010101010001 I
b101101 (
b101101 R
b11 $
b11 U
bx #
bx V
b101100 +
b101100 P
b101110 ,
b101110 =
b101111 -
12
#1740
02
#1750
b101110 (
b101110 R
b101101 #
b101101 V
b101111 ,
b101111 =
0.
12
#1760
02
#1770
b101111 (
b101111 R
b101110 #
b101110 V
0B
b101101 +
b101101 P
bx ,
bx =
01
b110000 -
1.
12
#1780
02
#1790
b1000010010101010101001101011001 I
b1 $
b1 U
b101111 #
b101111 V
1B
b101110 +
b101110 P
b110000 ,
b110000 =
11
b110001 -
12
#1800
02
#1810
b10100110100010101010001 I
b110000 (
b110000 R
b11 $
b11 U
bx #
bx V
b101111 +
b101111 P
b110001 ,
b110001 =
0.
12
#1820
02
#1830
b110001 (
b110001 R
b110000 #
b110000 V
0B
bx ,
bx =
01
12
#1840
02
#1850
b1000010010101010101001101011001 I
b1 $
b1 U
b110001 #
b110001 V
b110000 +
b110000 P
12
#1860
02
#1870
bx #
bx V
b110001 +
b110001 P
12
#1880
02
#1890
b110010 -
1.
12
#1900
02
#1910
1B
b110010 ,
b110010 =
11
b110011 -
12
#1920
02
#1930
b10100110100010101010001 I
b110010 (
b110010 R
b11 $
b11 U
b110011 ,
b110011 =
0.
12
#1940
02
#1950
b110011 (
b110011 R
b110010 #
b110010 V
0B
bx ,
bx =
01
12
#1960
02
#1970
b1000010010101010101001101011001 I
b1 $
b1 U
b110011 #
b110011 V
b110010 +
b110010 P
b110100 -
1.
12
#1980
02
#1990
bx #
bx V
1B
b110011 +
b110011 P
b110100 ,
b110100 =
11
b110101 -
12
#2000
02
#2010
b10100110100010101010001 I
b110100 (
b110100 R
b11 $
b11 U
b110101 ,
b110101 =
b110110 -
12
#2020
02
#2030
b110101 (
b110101 R
b110100 #
b110100 V
b110110 ,
b110110 =
b110111 -
12
#2040
02
#2050
b110110 (
b110110 R
b110101 #
b110101 V
b110100 +
b110100 P
b110111 ,
b110111 =
b111000 -
12
#2060
02
#2070
b110111 (
b110111 R
b110110 #
b110110 V
b110101 +
b110101 P
b111000 ,
b111000 =
0.
12
#2080
02
#2090
b111000 (
b111000 R
b110111 #
b110111 V
0B
b110110 +
b110110 P
bx ,
bx =
01
b111001 -
1.
12
#2100
02
#2110
b1000010010101010101001101011001 I
b1 $
b1 U
b111000 #
b111000 V
1B
b110111 +
b110111 P
b111001 ,
b111001 =
11
b111010 -
12
#2120
02
#2130
b10100110100010101010001 I
b111001 (
b111001 R
b11 $
b11 U
bx #
bx V
b111000 +
b111000 P
b111010 ,
b111010 =
b111011 -
12
#2140
02
#2150
b111010 (
b111010 R
b111001 #
b111001 V
b111011 ,
b111011 =
0.
12
#2160
02
#2170
b111011 (
b111011 R
b111010 #
b111010 V
0B
b111001 +
b111001 P
bx ,
bx =
01
12
#2180
02
#2190
b1000010010101010101001101011001 I
b1 $
b1 U
b111011 #
b111011 V
b111010 +
b111010 P
12
#2200
02
#2210
bx #
bx V
b111011 +
b111011 P
12
#2220
02
#2230
12
#2240
02
#2250
12
#2260
02
#2270
12
#2280
02
#2290
b111100 -
1.
12
#2300
02
#2310
1B
b111100 ,
b111100 =
11
b111101 -
12
#2320
02
#2330
b10100110100010101010001 I
b111100 (
b111100 R
b11 $
b11 U
b111101 ,
b111101 =
b111110 -
12
#2340
02
#2350
b111101 (
b111101 R
b111100 #
b111100 V
b111110 ,
b111110 =
b111111 -
12
#2360
02
#2370
b111110 (
b111110 R
b111101 #
b111101 V
b111100 +
b111100 P
b111111 ,
b111111 =
b1000000 -
12
#2380
02
#2390
b111111 (
b111111 R
b111110 #
b111110 V
b111101 +
b111101 P
b1000000 ,
b1000000 =
0.
12
#2400
02
#2410
b1000000 (
b1000000 R
b111111 #
b111111 V
0B
b111110 +
b111110 P
bx ,
bx =
01
b1000001 -
1.
12
#2420
02
#2430
b1000010010101010101001101011001 I
b1 $
b1 U
b1000000 #
b1000000 V
1B
b111111 +
b111111 P
b1000001 ,
b1000001 =
11
b1000010 -
12
#2440
02
#2450
b10100110100010101010001 I
b1000001 (
b1000001 R
b11 $
b11 U
bx #
bx V
b1000000 +
b1000000 P
b1000010 ,
b1000010 =
0.
12
#2460
02
#2470
b1000010 (
b1000010 R
b1000001 #
b1000001 V
0B
bx ,
bx =
01
12
#2480
02
#2490
b1000010010101010101001101011001 I
b1 $
b1 U
b1000010 #
b1000010 V
b1000001 +
b1000001 P
b1000011 -
1.
12
#2500
02
#2510
bx #
bx V
1B
b1000010 +
b1000010 P
b1000011 ,
b1000011 =
11
b1000100 -
12
#2520
02
#2530
b10100110100010101010001 I
b1000011 (
b1000011 R
b11 $
b11 U
b1000100 ,
b1000100 =
0.
12
#2540
02
#2550
b1000100 (
b1000100 R
b1000011 #
b1000011 V
0B
bx ,
bx =
01
b1000101 -
1.
12
#2560
02
#2570
b1000010010101010101001101011001 I
b1 $
b1 U
b1000100 #
b1000100 V
1B
b1000011 +
b1000011 P
b1000101 ,
b1000101 =
11
b1000110 -
12
#2580
02
#2590
b10100110100010101010001 I
b1000101 (
b1000101 R
b11 $
b11 U
bx #
bx V
b1000100 +
b1000100 P
b1000110 ,
b1000110 =
b1000111 -
12
#2600
02
#2610
b1000110 (
b1000110 R
b1000101 #
b1000101 V
b1000111 ,
b1000111 =
b1001000 -
12
#2620
02
#2630
b1000111 (
b1000111 R
b1000110 #
b1000110 V
b1000101 +
b1000101 P
b1001000 ,
b1001000 =
0.
12
#2640
02
#2650
b1001000 (
b1001000 R
b1000111 #
b1000111 V
0B
b1000110 +
b1000110 P
bx ,
bx =
01
12
#2660
02
#2670
b1000010010101010101001101011001 I
b1 $
b1 U
b1001000 #
b1001000 V
b1000111 +
b1000111 P
12
#2680
02
#2690
bx #
bx V
b1001000 +
b1001000 P
b1001001 -
1.
12
#2700
02
#2710
1B
b1001001 ,
b1001001 =
11
0.
12
#2720
02
#2730
b10100110100010101010001 I
b1001001 (
b1001001 R
b11 $
b11 U
0B
bx ,
bx =
01
12
#2740
02
#2750
b1000010010101010101001101011001 I
b1 $
b1 U
b1001001 #
b1001001 V
12
#2760
02
#2770
bx #
bx V
b1001001 +
b1001001 P
b1001010 -
1.
12
#2780
02
#2790
1B
b1001010 ,
b1001010 =
11
b1001011 -
12
#2800
02
#2810
b10100110100010101010001 I
b1001010 (
b1001010 R
b11 $
b11 U
b1001011 ,
b1001011 =
0.
12
#2820
02
#2830
b1001011 (
b1001011 R
b1001010 #
b1001010 V
0B
bx ,
bx =
01
12
#2840
02
#2850
b1000010010101010101001101011001 I
b1 $
b1 U
b1001011 #
b1001011 V
b1001010 +
b1001010 P
b1001100 -
1.
12
#2860
02
#2870
bx #
bx V
1B
b1001011 +
b1001011 P
b1001100 ,
b1001100 =
11
0.
12
#2880
02
#2890
b10100110100010101010001 I
b1001100 (
b1001100 R
b11 $
b11 U
0B
bx ,
bx =
01
12
#2900
02
#2910
b1000010010101010101001101011001 I
b1 $
b1 U
b1001100 #
b1001100 V
12
#2920
02
#2930
bx #
bx V
b1001100 +
b1001100 P
b1001101 -
1.
12
#2940
02
#2950
1B
b1001101 ,
b1001101 =
11
0.
12
#2960
02
#2970
b10100110100010101010001 I
b1001101 (
b1001101 R
b11 $
b11 U
0B
bx ,
bx =
01
12
#2980
02
#2990
b1000010010101010101001101011001 I
b1 $
b1 U
b1001101 #
b1001101 V
b1001110 -
1.
12
#3000
02
#3010
bx #
bx V
1B
b1001101 +
b1001101 P
b1001110 ,
b1001110 =
11
0.
12
#3020
02
#3030
b10100110100010101010001 I
b1001110 (
b1001110 R
b11 $
b11 U
0B
bx ,
bx =
01
b1001111 -
1.
12
#3040
02
#3050
b1000010010101010101001101011001 I
b1 $
b1 U
b1001110 #
b1001110 V
1B
b1001111 ,
b1001111 =
11
b1010000 -
12
#3060
02
#3070
b10100110100010101010001 I
b1001111 (
b1001111 R
b11 $
b11 U
bx #
bx V
b1001110 +
b1001110 P
b1010000 ,
b1010000 =
b1010001 -
12
#3080
02
#3090
b1010000 (
b1010000 R
b1001111 #
b1001111 V
b1010001 ,
b1010001 =
b1010010 -
12
#3100
02
#3110
b1010001 (
b1010001 R
b1010000 #
b1010000 V
b1001111 +
b1001111 P
b1010010 ,
b1010010 =
b1010011 -
12
#3120
02
#3130
b1010010 (
b1010010 R
b1010001 #
b1010001 V
b1010000 +
b1010000 P
b1010011 ,
b1010011 =
0.
12
#3140
02
#3150
b1010011 (
b1010011 R
b1010010 #
b1010010 V
0B
b1010001 +
b1010001 P
bx ,
bx =
01
12
#3160
02
#3170
b1000010010101010101001101011001 I
b1 $
b1 U
b1010011 #
b1010011 V
b1010010 +
b1010010 P
12
#3180
02
#3190
bx #
bx V
b1010011 +
b1010011 P
b1010100 -
1.
12
#3200
02
#3210
1B
b1010100 ,
b1010100 =
11
0.
12
#3220
02
#3230
b10100110100010101010001 I
b1010100 (
b1010100 R
b11 $
b11 U
0B
bx ,
bx =
01
12
#3240
02
#3250
b1000010010101010101001101011001 I
b1 $
b1 U
b1010100 #
b1010100 V
b1010101 -
1.
12
#3260
02
#3270
bx #
bx V
1B
b1010100 +
b1010100 P
b1010101 ,
b1010101 =
11
b1010110 -
12
#3280
02
#3290
b10100110100010101010001 I
b1010101 (
b1010101 R
b11 $
b11 U
b1010110 ,
b1010110 =
0.
12
#3300
02
#3310
b1010110 (
b1010110 R
b1010101 #
b1010101 V
0B
bx ,
bx =
01
12
#3320
02
#3330
b1000010010101010101001101011001 I
b1 $
b1 U
b1010110 #
b1010110 V
b1010101 +
b1010101 P
12
#3340
02
#3350
bx #
bx V
b1010110 +
b1010110 P
b1010111 -
1.
12
#3360
02
#3370
1B
b1010111 ,
b1010111 =
11
b1011000 -
12
#3380
02
#3390
b10100110100010101010001 I
b1010111 (
b1010111 R
b11 $
b11 U
b1011000 ,
b1011000 =
0.
12
#3400
02
#3410
b1011000 (
b1011000 R
b1010111 #
b1010111 V
0B
bx ,
bx =
01
12
#3420
02
#3430
b1000010010101010101001101011001 I
b1 $
b1 U
b1011000 #
b1011000 V
b1010111 +
b1010111 P
12
#3440
02
#3450
bx #
bx V
b1011000 +
b1011000 P
b1011001 -
1.
12
#3460
02
#3470
1B
b1011001 ,
b1011001 =
11
b1011010 -
12
#3480
02
#3490
b10100110100010101010001 I
b1011001 (
b1011001 R
b11 $
b11 U
b1011010 ,
b1011010 =
0.
12
#3500
02
#3510
b1011010 (
b1011010 R
b1011001 #
b1011001 V
0B
bx ,
bx =
01
12
#3520
02
#3530
b1000010010101010101001101011001 I
b1 $
b1 U
b1011010 #
b1011010 V
b1011001 +
b1011001 P
12
#3540
02
#3550
bx #
bx V
b1011010 +
b1011010 P
b1011011 -
1.
12
#3560
02
#3570
1B
b1011011 ,
b1011011 =
11
0.
12
#3580
02
#3590
b10100110100010101010001 I
b1011011 (
b1011011 R
b11 $
b11 U
0B
bx ,
bx =
01
12
#3600
02
#3610
b1000010010101010101001101011001 I
b1 $
b1 U
b1011011 #
b1011011 V
b1011100 -
1.
12
#3620
02
#3630
bx #
bx V
1B
b1011011 +
b1011011 P
b1011100 ,
b1011100 =
11
0.
12
#3640
02
#3650
b10100110100010101010001 I
b1011100 (
b1011100 R
b11 $
b11 U
0B
bx ,
bx =
01
12
#3660
02
#3670
b1000010010101010101001101011001 I
b1 $
b1 U
b1011100 #
b1011100 V
12
#3680
02
#3690
bx #
bx V
b1011100 +
b1011100 P
b1011101 -
1.
12
#3700
02
#3710
1B
b1011101 ,
b1011101 =
11
0.
12
#3720
02
#3730
b10100110100010101010001 I
b1011101 (
b1011101 R
b11 $
b11 U
0B
bx ,
bx =
01
b1011110 -
1.
12
#3740
02
#3750
b1000010010101010101001101011001 I
b1 $
b1 U
b1011101 #
b1011101 V
1B
b1011110 ,
b1011110 =
11
b1011111 -
12
#3760
02
#3770
b10100110100010101010001 I
b1011110 (
b1011110 R
b11 $
b11 U
bx #
bx V
b1011101 +
b1011101 P
b1011111 ,
b1011111 =
0.
12
#3780
02
#3790
b1011111 (
b1011111 R
b1011110 #
b1011110 V
0B
bx ,
bx =
01
12
#3800
02
#3810
b1000010010101010101001101011001 I
b1 $
b1 U
b1011111 #
b1011111 V
b1011110 +
b1011110 P
12
#3820
02
#3830
bx #
bx V
b1011111 +
b1011111 P
12
#3840
02
#3850
b1100000 -
1.
12
#3860
02
#3870
1B
b1100000 ,
b1100000 =
11
0.
12
#3880
02
#3890
b10100110100010101010001 I
b1100000 (
b1100000 R
b11 $
b11 U
0B
bx ,
bx =
01
12
#3900
02
#3910
b1000010010101010101001101011001 I
b1 $
b1 U
b1100000 #
b1100000 V
12
#3920
02
#3930
bx #
bx V
b1100000 +
b1100000 P
12
#3940
02
#3950
b1100001 -
1.
12
#3960
02
#3970
1B
b1100001 ,
b1100001 =
11
b1100010 -
12
#3980
02
#3990
b10100110100010101010001 I
b1100001 (
b1100001 R
b11 $
b11 U
b1100010 ,
b1100010 =
b1100011 -
12
#4000
02
#4010
b1100010 (
b1100010 R
b1100001 #
b1100001 V
b1100011 ,
b1100011 =
0.
12
#4020
02
#4030
b1100011 (
b1100011 R
b1100010 #
b1100010 V
0B
b1100001 +
b1100001 P
bx ,
bx =
01
b1100100 -
1.
12
#4040
02
#4050
b1000010010101010101001101011001 I
b1 $
b1 U
b1100011 #
b1100011 V
1B
b1100010 +
b1100010 P
b1100100 ,
b1100100 =
11
b1100101 -
12
#4060
02
#4070
b10100110100010101010001 I
b1100100 (
b1100100 R
b11 $
b11 U
bx #
bx V
b1100011 +
b1100011 P
b1100101 ,
b1100101 =
b1100110 -
12
#4080
02
#4090
b1100101 (
b1100101 R
b1100100 #
b1100100 V
b1100110 ,
b1100110 =
0.
12
#4100
02
#4110
b1100110 (
b1100110 R
b1100101 #
b1100101 V
0B
b1100100 +
b1100100 P
bx ,
bx =
01
12
#4120
02
#4130
b1000010010101010101001101011001 I
b1 $
b1 U
b1100110 #
b1100110 V
b1100101 +
b1100101 P
b1100111 -
1.
12
#4140
02
#4150
bx #
bx V
1B
b1100110 +
b1100110 P
b1100111 ,
b1100111 =
11
b1101000 -
12
#4160
02
#4170
b10100110100010101010001 I
b1100111 (
b1100111 R
b11 $
b11 U
b1101000 ,
b1101000 =
b1101001 -
12
#4180
02
#4190
b1101000 (
b1101000 R
b1100111 #
b1100111 V
b1101001 ,
b1101001 =
b1101010 -
12
#4200
02
#4210
b1101001 (
b1101001 R
b1101000 #
b1101000 V
b1100111 +
b1100111 P
b1101010 ,
b1101010 =
b1101011 -
12
#4220
02
#4230
b1101010 (
b1101010 R
b1101001 #
b1101001 V
b1101000 +
b1101000 P
b1101011 ,
b1101011 =
0.
12
#4240
02
#4250
b1101011 (
b1101011 R
b1101010 #
b1101010 V
0B
b1101001 +
b1101001 P
bx ,
bx =
01
b1101100 -
1.
12
#4260
02
#4270
b1000010010101010101001101011001 I
b1 $
b1 U
b1101011 #
b1101011 V
1B
b1101010 +
b1101010 P
b1101100 ,
b1101100 =
11
b1101101 -
12
#4280
02
